Assignment-6.utf8
…
a) Read in and display (some of) the data frame.

my_url <- "http://ritsokiguess.site/STAD29/reading_again.csv"
reading <- read_csv(my_url)

## Parsed with column specification:
## cols(
##   method = col_character(),
##   reading = col_double(),
##   income = col_double()
## )

reading

## # A tibble: 36 x 3
##    method  reading income
##    <chr>     <dbl>  <dbl>
##  1 method1      12   17.5
##  2 method2      45   70.8
##  3 method3      20   71.4
##  4 method4      12   35  
##  5 method1      39  105. 
##  6 method2      37   45.9
##  7 method3      42   55  
##  8 method4      10   33  
##  9 method1      36   64.7
## 10 method2      13   47.5
## #  with 26 more rows
…
my_url <- "http://ritsokiguess.site/STAD29/dietary.csv"
diet <- read_csv(my_url)

## Parsed with column specification:
## cols(
##   group = col_character(),
##   useful = col_double(),
##   difficulty = col_double(),
##   importance = col_double()
## )

diet

## # A tibble: 33 x 4
##    group   useful difficulty importance
##    <chr>    <dbl>      <dbl>      <dbl>
##  1 website   19.6       5.15       9.5 
##  2 website   15.4       5.75       9.10
##  3 website   22.3       4.35       3.30
##  4 website   24.3       7.55       5   
##  5 website   22.5       8.5        6   
##  6 website   20.5      10.2        5   
##  7 website   14.1       5.95      18.8 
##  8 website   13         6.30      16.5 
##  9 website   14.1       5.45       8.90
## 10 website   16.7       3.75       6   
## #  with 23 more rows
…
