Assignment-5.utf8
…
a) Read in and display the data.

my_url <- "http://ritsokiguess.site/STAD29/batteries.txt"
battery <- read_delim(my_url, " ")

## Parsed with column specification:
## cols(
##   material = col_character(),
##   temperature = col_character(),
##   life_hours = col_double()
## )

battery

## # A tibble: 36 x 3
##    material temperature life_hours
##    <chr>    <chr>            <dbl>
##  1 A        low                130
##  2 A        low                155
##  3 A        low                 74
##  4 A        low                180
##  5 A        medium              34
##  6 A        medium              40
##  7 A        medium              80
##  8 A        medium              75
##  9 A        high                20
## 10 A        high                70
## #  with 26 more rows

Variables: response = life_hours, explanatory = material, temperature

b) Which order are the temperatures in, as far as R is concerned? Does that make sense? If not, put them in the right order by creating a column in the data frame that has the right order.

battery %>%
mutate(temp2=fct_inorder(temperature)) -> battery
battery

## # A tibble: 36 x 4
##    material temperature life_hours temp2 
##    <chr>    <chr>            <dbl> <fct> 
##  1 A        low                130 low   
##  2 A        low                155 low   
##  3 A        low                 74 low   
##  4 A        low                180 low   
##  5 A        medium              34 medium
##  6 A        medium              40 medium
##  7 A        medium              80 medium
##  8 A        medium              75 medium
##  9 A        high                20 high  
## 10 A        high                70 high  
## #  with 26 more rows
…
